Chunyan Zheng - Example analysis
…
  # save the file to RDS objects
  saveRDS(starbucks, file= here("data","starbucks.RDS"))
}

starbucks <- readRDS(here("data","starbucks.RDS"))

mean_cl<-starbucks%>%filter(grepl('Frappuccino', product_name))%>%select(product_name, calories, size)%>%group_by(product_name,size)%>%summarise(average_calories=mean(calories))

`summarise()` has grouped output by 'product_name'. You can override using the
`.groups` argument.

mean_cl

# A tibble: 51 × 3
# Groups:   product_name [17]
   product_name                      size   average_calories
   <chr>                             <chr>             <dbl>
 1 Caffè Vanilla Frappuccino Blended grande              354
 2 Caffè Vanilla Frappuccino Blended tall                247
 3 Caffè Vanilla Frappuccino Blended venti               446
 4 Caffè Vanilla Frappuccino Light   grande              190
 5 Caffè Vanilla Frappuccino Light   tall                140
 6 Caffè Vanilla Frappuccino Light   venti               250
 7 Caramel Frappuccino Blended       grande              334
 8 Caramel Frappuccino Blended       tall                237
 9 Caramel Frappuccino Blended       venti               420
10 Caramel Frappuccino Light         grande              150
# … with 41 more rows
…
